HTTP/2 200 
date: Thu, 07 May 2026 10:48:35 GMT
content-type: application/json; charset=utf-8
content-length: 4709
access-control-allow-credentials: true
access-control-allow-origin: http://localhost:3000
etag: W/"1265-JKmahnouNn7Cbg/BXZYiYuWq7Ww"
vary: Origin
x-powered-by: Express
nel: {"report_to":"cf-nel","success_fraction":0.0,"max_age":604800}
cf-cache-status: DYNAMIC
report-to: {"group":"cf-nel","max_age":604800,"endpoints":[{"url":"https://a.nel.cloudflare.com/report/v4?s=gpHbvQdD6Bcy6Zmd6ljOp3foG8wKoSO7xM2DCa4H4%2FiCVmOgWsTAF%2Bs5FS7r%2BRb%2FMVRgPr4ZfrFkgfOSXxZH5NVg7S28kXF1usFMlYExHepmhCIkeKrbMoLPVYu7dQsXDNoHDnc%3D"}]}
server: cloudflare
cf-ray: 9f7fa7347fed834e-SIN
alt-svc: h3=":443"; ma=86400

{"data":[{"createdAt":"2026-05-03T14:55:26.345Z","updatedAt":"2026-05-03T14:56:44.575Z","id":"477a93ea-b6b0-4e32-8122-2bfca3666c50","sellerId":"13d2bb3e-b7cb-4bdd-8daf-bdfe4a5c0db0","creatorName":"0x20660b8d","title":"1","description":"1","creationYear":2,"editionRun":"2","dimensions":{"height":1,"width":2,"unit":"in"},"weight":{"value":2,"unit":"lbs"},"materials":null,"location":null,"price":"12.00","currency":"USD","quantity":1,"status":"ACTIVE","isPublished":true,"images":[{"id":"120eda29-4258-458f-b40d-603c75b7fcf9","url":"https://storage.googleapis.com/artwork_uit/artworks/13d2bb3e-b7cb-4bdd-8daf-bdfe4a5c0db0/477a93ea-b6b0-4e32-8122-2bfca3666c50/120eda29-4258-458f-b40d-603c75b7fcf9.jpg","order":0,"bucket":"artwork_uit","publicId":"artworks/13d2bb3e-b7cb-4bdd-8daf-bdfe4a5c0db0/477a93ea-b6b0-4e32-8122-2bfca3666c50/120eda29-4258-458f-b40d-603c75b7fcf9.jpg","createdAt":"2026-05-03T14:56:42.311Z","isPrimary":true,"secureUrl":"https://storage.googleapis.com/artwork_uit/artworks/13d2bb3e-b7cb-4bdd-8daf-bdfe4a5c0db0/477a93ea-b6b0-4e32-8122-2bfca3666c50/120eda29-4258-458f-b40d-603c75b7fcf9.jpg"}],"folderId":null,"viewCount":0,"likeCount":0,"commentCount":0,"moodboardCount":0,"ipfsMetadataHash":null,"reservePrice":null,"minBidIncrement":null,"auctionDuration":null,"onChainAuctionId":null,"thumbnailUrl":"https://storage.googleapis.com/artwork_uit/artworks/13d2bb3e-b7cb-4bdd-8daf-bdfe4a5c0db0/477a93ea-b6b0-4e32-8122-2bfca3666c50/120eda29-4258-458f-b40d-603c75b7fcf9.jpg","displayStatus":"Draft","auctionLifecycle":null},{"createdAt":"2026-05-03T14:43:41.743Z","updatedAt":"2026-05-03T14:44:17.274Z","id":"d165877a-4f25-4b67-afbd-dccc2928736a","sellerId":"5caa6331-bc6b-4792-b203-b4a2f7103e63","creatorName":"0x77a2ac82","title":"aaaa","description":null,"creationYear":2222,"editionRun":null,"dimensions":{"height":12,"width":12,"unit":"in"},"weight":null,"materials":null,"location":null,"price":"12.00","currency":"USD","quantity":1,"status":"ACTIVE","isPublished":true,"images":[{"id":"8e89957d-74f6-4d03-9e89-f6e71af1555b","url":"https://storage.googleapis.com/artwork_uit/artworks/5caa6331-bc6b-4792-b203-b4a2f7103e63/d165877a-4f25-4b67-afbd-dccc2928736a/8e89957d-74f6-4d03-9e89-f6e71af1555b.jpeg","order":0,"bucket":"artwork_uit","publicId":"artworks/5caa6331-bc6b-4792-b203-b4a2f7103e63/d165877a-4f25-4b67-afbd-dccc2928736a/8e89957d-74f6-4d03-9e89-f6e71af1555b.jpeg","createdAt":"2026-05-03T14:44:16.905Z","isPrimary":true,"secureUrl":"https://storage.googleapis.com/artwork_uit/artworks/5caa6331-bc6b-4792-b203-b4a2f7103e63/d165877a-4f25-4b67-afbd-dccc2928736a/8e89957d-74f6-4d03-9e89-f6e71af1555b.jpeg"}],"folderId":null,"viewCount":0,"likeCount":0,"commentCount":0,"moodboardCount":0,"ipfsMetadataHash":null,"reservePrice":null,"minBidIncrement":null,"auctionDuration":null,"onChainAuctionId":null,"thumbnailUrl":"https://storage.googleapis.com/artwork_uit/artworks/5caa6331-bc6b-4792-b203-b4a2f7103e63/d165877a-4f25-4b67-afbd-dccc2928736a/8e89957d-74f6-4d03-9e89-f6e71af1555b.jpeg","displayStatus":"Draft","auctionLifecycle":null},{"createdAt":"2026-05-03T14:33:15.080Z","updatedAt":"2026-05-03T14:39:02.958Z","id":"b88af67d-9526-4faa-a697-caafeb84d11b","sellerId":"13d2bb3e-b7cb-4bdd-8daf-bdfe4a5c0db0","creatorName":"0x20660b8d","title":"1","description":"2","creationYear":2,"editionRun":"2","dimensions":{"height":12,"width":12,"depth":12,"unit":"in"},"weight":{"value":12,"unit":"lbs"},"materials":"12","location":null,"price":"1.00","currency":"USD","quantity":1,"status":"ACTIVE","isPublished":true,"images":[{"id":"562a0211-13c4-453a-83c4-a66d428471dc","url":"https://storage.googleapis.com/artwork_uit/artworks/13d2bb3e-b7cb-4bdd-8daf-bdfe4a5c0db0/b88af67d-9526-4faa-a697-caafeb84d11b/562a0211-13c4-453a-83c4-a66d428471dc.jpg","order":0,"bucket":"artwork_uit","publicId":"artworks/13d2bb3e-b7cb-4bdd-8daf-bdfe4a5c0db0/b88af67d-9526-4faa-a697-caafeb84d11b/562a0211-13c4-453a-83c4-a66d428471dc.jpg","createdAt":"2026-05-03T14:39:02.250Z","isPrimary":true,"secureUrl":"https://storage.googleapis.com/artwork_uit/artworks/13d2bb3e-b7cb-4bdd-8daf-bdfe4a5c0db0/b88af67d-9526-4faa-a697-caafeb84d11b/562a0211-13c4-453a-83c4-a66d428471dc.jpg"}],"folderId":null,"viewCount":0,"likeCount":0,"commentCount":0,"moodboardCount":0,"ipfsMetadataHash":null,"reservePrice":null,"minBidIncrement":null,"auctionDuration":null,"onChainAuctionId":null,"thumbnailUrl":"https://storage.googleapis.com/artwork_uit/artworks/13d2bb3e-b7cb-4bdd-8daf-bdfe4a5c0db0/b88af67d-9526-4faa-a697-caafeb84d11b/562a0211-13c4-453a-83c4-a66d428471dc.jpg","displayStatus":"Draft","auctionLifecycle":null}],"pagination":{"total":101,"skip":0,"take":3,"totalPages":34,"currentPage":1,"hasNext":true,"hasPrev":false}}