HTTP/2 200 
date: Thu, 07 May 2026 10:38:16 GMT
content-type: application/json; charset=utf-8
content-length: 7799
access-control-allow-credentials: true
etag: W/"1e77-UqnDUamtUQ+qVUTSteXTy6zTc5U"
vary: Origin
x-powered-by: Express
nel: {"report_to":"cf-nel","success_fraction":0.0,"max_age":604800}
cf-cache-status: DYNAMIC
report-to: {"group":"cf-nel","max_age":604800,"endpoints":[{"url":"https://a.nel.cloudflare.com/report/v4?s=6biRlMzakFkdNRQILGmMCPv9R%2FHiYj%2FsALUi%2F01IQ1LMnh5i19AQgn5pDfSFWw4ijhFg8IHST0QMyy0%2FWi%2BHDeGvMxUeRjoBT8aSfq3FIVBathUJweWyh2lkE23NKA2BQeJdZmA%3D"}]}
server: cloudflare
cf-ray: 9f7f9816be45834e-SIN
alt-svc: h3=":443"; ma=86400

{"data":[{"createdAt":"2026-05-03T14:55:26.345Z","updatedAt":"2026-05-03T14:56:44.575Z","id":"477a93ea-b6b0-4e32-8122-2bfca3666c50","sellerId":"13d2bb3e-b7cb-4bdd-8daf-bdfe4a5c0db0","creatorName":"0x20660b8d","title":"1","description":"1","creationYear":2,"editionRun":"2","dimensions":{"height":1,"width":2,"unit":"in"},"weight":{"value":2,"unit":"lbs"},"materials":null,"location":null,"price":"12.00","currency":"USD","quantity":1,"status":"ACTIVE","isPublished":true,"images":[{"id":"120eda29-4258-458f-b40d-603c75b7fcf9","url":"https://storage.googleapis.com/artwork_uit/artworks/13d2bb3e-b7cb-4bdd-8daf-bdfe4a5c0db0/477a93ea-b6b0-4e32-8122-2bfca3666c50/120eda29-4258-458f-b40d-603c75b7fcf9.jpg","order":0,"bucket":"artwork_uit","publicId":"artworks/13d2bb3e-b7cb-4bdd-8daf-bdfe4a5c0db0/477a93ea-b6b0-4e32-8122-2bfca3666c50/120eda29-4258-458f-b40d-603c75b7fcf9.jpg","createdAt":"2026-05-03T14:56:42.311Z","isPrimary":true,"secureUrl":"https://storage.googleapis.com/artwork_uit/artworks/13d2bb3e-b7cb-4bdd-8daf-bdfe4a5c0db0/477a93ea-b6b0-4e32-8122-2bfca3666c50/120eda29-4258-458f-b40d-603c75b7fcf9.jpg"}],"folderId":null,"viewCount":0,"likeCount":0,"commentCount":0,"moodboardCount":0,"ipfsMetadataHash":null,"reservePrice":null,"minBidIncrement":null,"auctionDuration":null,"onChainAuctionId":null,"thumbnailUrl":"https://storage.googleapis.com/artwork_uit/artworks/13d2bb3e-b7cb-4bdd-8daf-bdfe4a5c0db0/477a93ea-b6b0-4e32-8122-2bfca3666c50/120eda29-4258-458f-b40d-603c75b7fcf9.jpg","displayStatus":"Draft","auctionLifecycle":null},{"createdAt":"2026-05-03T14:43:41.743Z","updatedAt":"2026-05-03T14:44:17.274Z","id":"d165877a-4f25-4b67-afbd-dccc2928736a","sellerId":"5caa6331-bc6b-4792-b203-b4a2f7103e63","creatorName":"0x77a2ac82","title":"aaaa","description":null,"creationYear":2222,"editionRun":null,"dimensions":{"height":12,"width":12,"unit":"in"},"weight":null,"materials":null,"location":null,"price":"12.00","currency":"USD","quantity":1,"status":"ACTIVE","isPublished":true,"images":[{"id":"8e89957d-74f6-4d03-9e89-f6e71af1555b","url":"https://storage.googleapis.com/artwork_uit/artworks/5caa6331-bc6b-4792-b203-b4a2f7103e63/d165877a-4f25-4b67-afbd-dccc2928736a/8e89957d-74f6-4d03-9e89-f6e71af1555b.jpeg","order":0,"bucket":"artwork_uit","publicId":"artworks/5caa6331-bc6b-4792-b203-b4a2f7103e63/d165877a-4f25-4b67-afbd-dccc2928736a/8e89957d-74f6-4d03-9e89-f6e71af1555b.jpeg","createdAt":"2026-05-03T14:44:16.905Z","isPrimary":true,"secureUrl":"https://storage.googleapis.com/artwork_uit/artworks/5caa6331-bc6b-4792-b203-b4a2f7103e63/d165877a-4f25-4b67-afbd-dccc2928736a/8e89957d-74f6-4d03-9e89-f6e71af1555b.jpeg"}],"folderId":null,"viewCount":0,"likeCount":0,"commentCount":0,"moodboardCount":0,"ipfsMetadataHash":null,"reservePrice":null,"minBidIncrement":null,"auctionDuration":null,"onChainAuctionId":null,"thumbnailUrl":"https://storage.googleapis.com/artwork_uit/artworks/5caa6331-bc6b-4792-b203-b4a2f7103e63/d165877a-4f25-4b67-afbd-dccc2928736a/8e89957d-74f6-4d03-9e89-f6e71af1555b.jpeg","displayStatus":"Draft","auctionLifecycle":null},{"createdAt":"2026-05-03T14:33:15.080Z","updatedAt":"2026-05-03T14:39:02.958Z","id":"b88af67d-9526-4faa-a697-caafeb84d11b","sellerId":"13d2bb3e-b7cb-4bdd-8daf-bdfe4a5c0db0","creatorName":"0x20660b8d","title":"1","description":"2","creationYear":2,"editionRun":"2","dimensions":{"height":12,"width":12,"depth":12,"unit":"in"},"weight":{"value":12,"unit":"lbs"},"materials":"12","location":null,"price":"1.00","currency":"USD","quantity":1,"status":"ACTIVE","isPublished":true,"images":[{"id":"562a0211-13c4-453a-83c4-a66d428471dc","url":"https://storage.googleapis.com/artwork_uit/artworks/13d2bb3e-b7cb-4bdd-8daf-bdfe4a5c0db0/b88af67d-9526-4faa-a697-caafeb84d11b/562a0211-13c4-453a-83c4-a66d428471dc.jpg","order":0,"bucket":"artwork_uit","publicId":"artworks/13d2bb3e-b7cb-4bdd-8daf-bdfe4a5c0db0/b88af67d-9526-4faa-a697-caafeb84d11b/562a0211-13c4-453a-83c4-a66d428471dc.jpg","createdAt":"2026-05-03T14:39:02.250Z","isPrimary":true,"secureUrl":"https://storage.googleapis.com/artwork_uit/artworks/13d2bb3e-b7cb-4bdd-8daf-bdfe4a5c0db0/b88af67d-9526-4faa-a697-caafeb84d11b/562a0211-13c4-453a-83c4-a66d428471dc.jpg"}],"folderId":null,"viewCount":0,"likeCount":0,"commentCount":0,"moodboardCount":0,"ipfsMetadataHash":null,"reservePrice":null,"minBidIncrement":null,"auctionDuration":null,"onChainAuctionId":null,"thumbnailUrl":"https://storage.googleapis.com/artwork_uit/artworks/13d2bb3e-b7cb-4bdd-8daf-bdfe4a5c0db0/b88af67d-9526-4faa-a697-caafeb84d11b/562a0211-13c4-453a-83c4-a66d428471dc.jpg","displayStatus":"Draft","auctionLifecycle":null},{"createdAt":"2026-05-02T15:41:23.816Z","updatedAt":"2026-05-02T15:42:04.334Z","id":"454c93c9-b552-47f5-8992-6801efe12e41","sellerId":"13eedcf9-2592-4b1b-bb03-f2ae4365aaa6","creatorName":"Nghĩa Nguyễn","title":"edfadawd","description":null,"creationYear":2025,"editionRun":null,"dimensions":{"height":12,"width":2,"unit":"in"},"weight":null,"materials":null,"location":null,"price":"12.00","currency":"USD","quantity":1,"status":"ACTIVE","isPublished":true,"images":[{"id":"4d03d7c1-b975-47e6-a72d-71f959137f23","url":"https://storage.googleapis.com/artwork_uit/artworks/13eedcf9-2592-4b1b-bb03-f2ae4365aaa6/454c93c9-b552-47f5-8992-6801efe12e41/4d03d7c1-b975-47e6-a72d-71f959137f23.webp","order":0,"bucket":"artwork_uit","publicId":"artworks/13eedcf9-2592-4b1b-bb03-f2ae4365aaa6/454c93c9-b552-47f5-8992-6801efe12e41/4d03d7c1-b975-47e6-a72d-71f959137f23.webp","createdAt":"2026-05-02T15:42:04.131Z","isPrimary":true,"secureUrl":"https://storage.googleapis.com/artwork_uit/artworks/13eedcf9-2592-4b1b-bb03-f2ae4365aaa6/454c93c9-b552-47f5-8992-6801efe12e41/4d03d7c1-b975-47e6-a72d-71f959137f23.webp"}],"folderId":null,"viewCount":0,"likeCount":0,"commentCount":0,"moodboardCount":0,"ipfsMetadataHash":null,"reservePrice":null,"minBidIncrement":null,"auctionDuration":null,"onChainAuctionId":null,"thumbnailUrl":"https://storage.googleapis.com/artwork_uit/artworks/13eedcf9-2592-4b1b-bb03-f2ae4365aaa6/454c93c9-b552-47f5-8992-6801efe12e41/4d03d7c1-b975-47e6-a72d-71f959137f23.webp","displayStatus":"Draft","auctionLifecycle":null},{"createdAt":"2026-04-30T00:22:06.920Z","updatedAt":"2026-05-05T14:59:19.219Z","id":"864b7ebc-4683-4985-9d98-6203e54d40d2","sellerId":"1149d95e-24fb-42c6-bbec-d1c2f4f0f7be","creatorName":"Prism Art Space","title":"asdasd","description":null,"creationYear":1212,"editionRun":null,"dimensions":{"height":12,"width":12,"unit":"cm"},"weight":null,"materials":null,"location":null,"price":null,"currency":"USD","quantity":1,"status":"ACTIVE","isPublished":true,"images":[{"id":"9a2adedf-7d2e-4f61-91b6-e327c7640926","url":"https://storage.googleapis.com/artwork_uit/artworks/1149d95e-24fb-42c6-bbec-d1c2f4f0f7be/864b7ebc-4683-4985-9d98-6203e54d40d2/9a2adedf-7d2e-4f61-91b6-e327c7640926.webp","order":0,"bucket":"artwork_uit","publicId":"artworks/1149d95e-24fb-42c6-bbec-d1c2f4f0f7be/864b7ebc-4683-4985-9d98-6203e54d40d2/9a2adedf-7d2e-4f61-91b6-e327c7640926.webp","createdAt":"2026-04-30T00:31:39.937Z","isPrimary":true,"secureUrl":"https://storage.googleapis.com/artwork_uit/artworks/1149d95e-24fb-42c6-bbec-d1c2f4f0f7be/864b7ebc-4683-4985-9d98-6203e54d40d2/9a2adedf-7d2e-4f61-91b6-e327c7640926.webp"}],"folderId":"373cdc41-997a-4faf-9647-ab05e6ac1fe8","viewCount":0,"likeCount":0,"commentCount":0,"moodboardCount":0,"ipfsMetadataHash":null,"reservePrice":null,"minBidIncrement":null,"auctionDuration":null,"onChainAuctionId":null,"thumbnailUrl":"https://storage.googleapis.com/artwork_uit/artworks/1149d95e-24fb-42c6-bbec-d1c2f4f0f7be/864b7ebc-4683-4985-9d98-6203e54d40d2/9a2adedf-7d2e-4f61-91b6-e327c7640926.webp","displayStatus":"Draft","auctionLifecycle":null}],"pagination":{"total":101,"skip":0,"take":5,"totalPages":21,"currentPage":1,"hasNext":true,"hasPrev":false}}